[gd_scene load_steps=3 format=2]

[ext_resource path="res://objects/game/Geometry.tscn" type="PackedScene" id=1]
[ext_resource path="res://scenes/Testbed.gd" type="Script" id=4]

[node name="Testbed" type="Node2D"]
script = ExtResource( 4 )

[node name="Geometry" parent="." instance=ExtResource( 1 )]

[node name="Camera2D" type="Camera2D" parent="."]
position = Vector2( 336, 192 )
current = true
zoom = Vector2( 0.5, 0.5 )
limit_left = -1000
limit_top = -1000
limit_right = 1000
limit_bottom = 1000
drag_margin_left = 1.0
drag_margin_top = 1.0
drag_margin_right = 1.0
drag_margin_bottom = 1.0
