[gd_scene load_steps=5 format=2]

[ext_resource path="res://sprites/carl.png" type="Texture" id=1]
[ext_resource path="res://objects/game/Carl.gd" type="Script" id=2]

[sub_resource type="RectangleShape2D" id=1]
extents = Vector2( 16, 8 )

[sub_resource type="RectangleShape2D" id=2]
extents = Vector2( 32, 12 )

[node name="Carl" type="KinematicBody2D" groups=[
"interactable",
]]
collision_layer = 0
script = ExtResource( 2 )

[node name="Sprite" type="Sprite" parent="."]
position = Vector2( 0, -8 )
texture = ExtResource( 1 )

[node name="CollisionShape2D" type="CollisionShape2D" parent="."]
position = Vector2( 0, -8 )
shape = SubResource( 1 )

[node name="Area2D_Interact" type="Area2D" parent="."]

[node name="CollisionShape2D" type="CollisionShape2D" parent="Area2D_Interact"]
position = Vector2( 0, -12 )
shape = SubResource( 2 )

[node name="Camera2D" type="Camera2D" parent="."]
position = Vector2( -32, -20 )
zoom = Vector2( 0.25, 0.25 )
