[gd_scene load_steps=4 format=2]

[ext_resource path="res://sprites/hammer.png" type="Texture" id=1]
[ext_resource path="res://objects/game/Hammer.gd" type="Script" id=2]

[sub_resource type="RectangleShape2D" id=1]
extents = Vector2( 18, 32 )

[node name="Hammer" type="KinematicBody2D" groups=[
"hammer",
]]
script = ExtResource( 2 )

[node name="CollisionShape2D" type="CollisionShape2D" parent="."]
position = Vector2( 0, -32 )
shape = SubResource( 1 )

[node name="Sprite" type="Sprite" parent="."]
texture = ExtResource( 1 )
offset = Vector2( 0, -32 )
