[gd_scene load_steps=3 format=2]

[ext_resource path="res://objects/game/OrbEnergy.gd" type="Script" id=1]
[ext_resource path="res://sprites/energy_orbs.png" type="Texture" id=2]

[node name="OrbEnergy" type="Sprite" groups=[
"orb_energy",
]]
position = Vector2( 64, 64 )
z_index = 50
texture = ExtResource( 2 )
vframes = 4
hframes = 8
script = ExtResource( 1 )

[node name="Tween" type="Tween" parent="."]

[node name="Timer_NextFrame" type="Timer" parent="."]
wait_time = 0.05
autostart = true
[connection signal="timeout" from="Timer_NextFrame" to="." method="_on_Timer_NextFrame_timeout"]
