[gd_scene load_steps=4 format=2]

[ext_resource path="res://sprites/spark.png" type="Texture" id=1]
[ext_resource path="res://objects/game/Spark.gd" type="Script" id=2]

[sub_resource type="CircleShape2D" id=1]
radius = 6.0

[node name="Spark" type="Area2D"]
script = ExtResource( 2 )

[node name="CollisionShape2D" type="CollisionShape2D" parent="."]
position = Vector2( 8, 8 )
shape = SubResource( 1 )

[node name="Sprite" type="Sprite" parent="."]
position = Vector2( 8, 8 )
texture = ExtResource( 1 )
hframes = 5

[node name="RayCast2D_Up" type="RayCast2D" parent="."]
position = Vector2( 8, 8 )
enabled = true
cast_to = Vector2( 0, -16 )
collision_mask = 5

[node name="RayCast2D_Down" type="RayCast2D" parent="."]
position = Vector2( 8, 8 )
enabled = true
cast_to = Vector2( 0, 16 )
collision_mask = 5

[node name="RayCast2D_Left" type="RayCast2D" parent="."]
position = Vector2( 8, 8 )
enabled = true
cast_to = Vector2( -16, 0 )
collision_mask = 5

[node name="RayCast2D_Right" type="RayCast2D" parent="."]
position = Vector2( 8, 8 )
enabled = true
cast_to = Vector2( 16, 0 )
collision_mask = 5
[connection signal="body_entered" from="." to="." method="_body_entered"]
