[gd_scene load_steps=6 format=2]

[ext_resource path="res://sprites/springboard_base.png" type="Texture" id=1]
[ext_resource path="res://sprites/springboard_head.png" type="Texture" id=2]
[ext_resource path="res://objects/game/Springboard.gd" type="Script" id=3]

[sub_resource type="RectangleShape2D" id=1]
extents = Vector2( 8, 8 )

[sub_resource type="RectangleShape2D" id=2]
extents = Vector2( 8, 2 )

[node name="Springboard" type="StaticBody2D"]
script = ExtResource( 3 )

[node name="CollisionShape2D" type="CollisionShape2D" parent="."]
position = Vector2( 0, -8 )
shape = SubResource( 1 )

[node name="Sprite" type="Sprite" parent="."]
texture = ExtResource( 1 )
offset = Vector2( 0, -4 )

[node name="Sprite_Head" type="Sprite" parent="."]
position = Vector2( -8, -11 )
z_index = -1
texture = ExtResource( 2 )
centered = false
offset = Vector2( 0, -4.803 )
region_enabled = true
region_rect = Rect2( 0, 0, 16, 10 )

[node name="Area2D_PlayerStand" type="Area2D" parent="."]

[node name="CollisionShape2D" type="CollisionShape2D" parent="Area2D_PlayerStand"]
position = Vector2( 0, -18 )
shape = SubResource( 2 )

[node name="Tween" type="Tween" parent="."]
[connection signal="body_entered" from="Area2D_PlayerStand" to="." method="_on_Area2D_PlayerStand_body_entered"]
