[gd_scene load_steps=4 format=2]

[ext_resource path="res://sprites/stalactite.png" type="Texture" id=1]
[ext_resource path="res://objects/game/Stalactite.gd" type="Script" id=2]

[sub_resource type="RectangleShape2D" id=1]
extents = Vector2( 6, 16 )

[node name="Stalactite" type="KinematicBody2D" groups=[
"slippery",
]]
script = ExtResource( 2 )

[node name="CollisionShape2D" type="CollisionShape2D" parent="."]
position = Vector2( 0, 16 )
shape = SubResource( 1 )

[node name="Sprite" type="Sprite" parent="."]
texture = ExtResource( 1 )
offset = Vector2( 0, 16 )
hframes = 2

[node name="RayCast2D" type="RayCast2D" parent="."]
position = Vector2( 0, 32 )
enabled = true
cast_to = Vector2( 0, 360 )
collision_mask = 3
