{
	"a1": {
		"title": "Reunion",
		"subtitle": "Or: A Talking Turtle Explains Everything.",
		"par": 6000,
		"devs_best": 3944,
		"path": "res://levels/a1.hcl",
		"bgm_track": "Ice Dungeon",
		"bg_palette": 0,
		"bg_mountains": 0
	},
	"a2": {
		"title": "That Sinking Feeling",
		"subtitle": "Rats not included.",
		"par": 8000,
		"devs_best": 6186,
		"path": "res://levels/a2.hcl",
		"bgm_track": "Ice Dungeon",
		"bg_palette": 0,
		"bg_mountains": 0
	},
	"a3": {
		"title": "Spark, Hear the Bells",
		"subtitle": "Watch your step!",
		"par": 11000,
		"devs_best": 4883,
		"path": "res://levels/a3.hcl",
		"bgm_track": "Ice Dungeon",
		"bg_palette": 0,
		"bg_mountains": 0
	},
	"a4": {
		"title": "Sliding Floors",
		"subtitle": "The very latest in impractical transportation.",
		"par": 17000,
		"devs_best": 7468,
		"path": "res://levels/a4.hcl",
		"bgm_track": "Ice Dungeon",
		"bg_palette": 0,
		"bg_mountains": 0
	},
	"a5": {
		"title": "Loadbearing",
		"subtitle": "Tread lightly.",
		"par": 8000,
		"devs_best": 5466,
		"path": "res://levels/a5.hcl",
		"bgm_track": "Photographs",
		"bg_palette": 1,
		"bg_mountains": 0
	},
	"a6": {
		"title": "Bouncers",
		"subtitle": "You don't have to go home...",
		"par": 8000,
		"devs_best": 4415,
		"path": "res://levels/a6.hcl",
		"bgm_track": "Photographs",
		"bg_palette": 1,
		"bg_mountains": 0
	},
	"a7": {
		"title": "Ladies Leaping",
		"subtitle": "The lords can dance this year.",
		"par": 7000,
		"devs_best": 3165,
		"path": "res://levels/a7.hcl",
		"bgm_track": "Photographs",
		"bg_palette": 1,
		"bg_mountains": 0
	},
	"a8": {
		"title": "Icebreaker",
		"subtitle": "Heads up!",
		"par": 9000,
		"devs_best": 5868,
		"path": "res://levels/a8.hcl",
		"bgm_track": "Photographs",
		"bg_palette": 1,
		"bg_mountains": 0
	},
	"a9": {
		"title": "Colour Co-ordinate",
		"subtitle": "Who's that? Simon? Never heard of him.",
		"par": 18000,
		"devs_best": 13543,
		"path": "res://levels/a9.hcl",
		"bgm_track": "Stage 02",
		"bg_palette": 2,
		"bg_mountains": 0
	},
	"a10": {
		"title": "Getting Hammered",
		"subtitle": "In the festive sense.",
		"par": 11000,
		"devs_best": 9280,
		"path": "res://levels/a10.hcl",
		"bgm_track": "Stage 02",
		"bg_palette": 2,
		"bg_mountains": 0
	},
	"a11": {
		"title": "Springjump",
		"subtitle": "What, they don't all have to have clever names.",
		"par": 16000,
		"devs_best": 7135,
		"path": "res://levels/a11.hcl",
		"bgm_track": "Stage 02",
		"bg_palette": 2,
		"bg_mountains": 0
	},
	"a12": {
		"title": "Party Crashers",
		"subtitle": "Now featuring slow-travelling bullets!",
		"par": 12000,
		"devs_best": 7401,
		"path": "res://levels/a12.hcl",
		"bgm_track": "Stage 02",
		"bg_palette": 2,
		"bg_mountains": 0
	},
	"a_end": {
		"path": "res://levels/a_end.hcl",
		"bgm_track": "Wake Up",
		"bg_palette": 2,
		"bg_mountains": 0
	},
	"b1": {
		"title": "An Icy Reception",
		"subtitle": "",
		"par": 7000,
		"devs_best": 4815,
		"path": "res://levels/b1.hcl",
		"bgm_track": "To The West",
		"bg_palette": 0,
		"bg_mountains": 1
	},
	"b2": {
		"title": "The Road Less Travelled",
		"subtitle": "",
		"par": 15000,
		"devs_best": 11804,
		"path": "res://levels/b2.hcl",
		"bgm_track": "To The West",
		"bg_palette": 0,
		"bg_mountains": 1
	},
	"b3": {
		"title": "Across the Bridge",
		"subtitle": "Sparks Every Step.",
		"par": 8000,
		"devs_best": 5168,
		"path": "res://levels/b3.hcl",
		"bgm_track": "To The West",
		"bg_palette": 0,
		"bg_mountains": 1
	},
	"b4": {
		"title": "Mind the Gap",
		"subtitle": "Making a leap of faith.",
		"par": 7000,
		"devs_best": 5786,
		"path": "res://levels/b4.hcl",
		"bgm_track": "To The West",
		"bg_palette": 0,
		"bg_mountains": 1
	},
	"b5": {
		"title": "Tumbledown",
		"subtitle": "",
		"par": 8000,
		"devs_best": 5572,
		"path": "res://levels/b5.hcl",
		"bgm_track": "Night Watch",
		"bg_palette": 1,
		"bg_mountains": 1
	},
	"b6": {
		"title": "Having a Ball",
		"subtitle": "I gotta bounce.",
		"par": 13000,
		"devs_best": 10506,
		"path": "res://levels/b6.hcl",
		"bgm_track": "Night Watch",
		"bg_palette": 1,
		"bg_mountains": 1
	},
	"b7": {
		"title": "The Floating Fortress",
		"subtitle": "When Gravity Messes Up.",
		"par": 6000,
		"devs_best": 3600,
		"path": "res://levels/b7.hcl",
		"bgm_track": "To The West",
		"bg_palette": 0,
		"bg_mountains": 1
	},
	"b8": {
		"title": "The Best Laid Plans of Ice",
		"subtitle": "A bit of redirection.",
		"par": 13000,
		"devs_best": 10477,
		"path": "res://levels/b8.hcl",
		"bgm_track": "To The West",
		"bg_palette": 0,
		"bg_mountains": 1
	},
	"b9": {
		"title": "An Orderly Fashion",
		"subtitle": "Or: Why I'm Not Allowed to Install Doorbells Anymore.",
		"par": 30000,
		"devs_best": 24736,
		"path": "res://levels/b9.hcl",
		"bgm_track": "Stygiomedusa Gigantea",
		"bg_palette": 3,
		"bg_mountains": 1
	},
	"b10": {
		"title": "Breakout",
		"subtitle": "Opening a path.",
		"par": 30000,
		"devs_best": 22115,
		"path": "res://levels/b10.hcl",
		"bgm_track": "Night Watch",
		"bg_palette": 1,
		"bg_mountains": 1
	},
	"b11": {
		"title": "A Spring In Your Step",
		"subtitle": "What's the key to comedy? Surviving.",
		"par": 13000,
		"devs_best": 11923,
		"path": "res://levels/b11.hcl",
		"bgm_track": "Stygiomedusa Gigantea",
		"bg_palette": 2,
		"bg_mountains": 1
	},
	"b12": {
		"title": "The One With Many Bullets",
		"subtitle": "More daka!",
		"par": 9000,
		"devs_best": 4233,
		"path": "res://levels/b12.hcl",
		"bgm_track": "Stygiomedusa Gigantea",
		"bg_palette": 3,
		"bg_mountains": 1
	},
	"b_end": {
		"path": "res://levels/b_end.hcl",
		"bgm_track": "Wake Up",
		"bg_palette": 2,
		"bg_mountains": 0
	},
	"c1": {
		"title": "Prancing on Ice",
		"subtitle": "When one route closes...",
		"par": 18000,
		"devs_best": 7936,
		"path": "res://levels/c1.hcl",
		"bgm_track": "Night Watch",
		"bg_palette": 1,
		"bg_mountains": 1
	},
	"c4": {
		"title": "The Approach",
		"subtitle": "",
		"par": 8000,
		"devs_best": 6169,
		"path": "res://levels/c4.hcl",
		"bgm_track": "Ocean Planet",
		"bg_palette": 3,
		"bg_mountains": 1
	},
	"c5": {
		"title": "Descent and Rise",
		"subtitle": "",
		"par": 18000,
		"devs_best": 14510,
		"path": "res://levels/c5.hcl",
		"bgm_track": "Ocean Planet",
		"bg_palette": 3,
		"bg_mountains": 1
	},
	"c7": {
		"title": "The Watchtower",
		"subtitle": "+1 to towering, -1 to watching.",
		"par": 9000,
		"devs_best": 6985,
		"path": "res://levels/c7.hcl",
		"bgm_track": "Night Watch",
		"bg_palette": 1,
		"bg_mountains": 1
	},
	"c8": {
		"title": "The Bailey",
		"subtitle": "This is totally what medieval castles looked like.",
		"par": 15000,
		"devs_best": 8036,
		"path": "res://levels/c8.hcl",
		"bgm_track": "Stygiomedusa Gigantea",
		"bg_palette": 3,
		"bg_mountains": 1
	},
	"c11": {
		"title": "Moving Targets",
		"subtitle": "",
		"par": 16000,
		"devs_best": 0.0,
		"path": "res://levels/c11.hcl",
		"bgm_track": "Uncharted Planet",
		"bg_palette": 3,
		"bg_mountains": 1
	},
	"c12": {
		"title": "The Stronghold",
		"subtitle": "Go with the flow.",
		"par": 25000,
		"devs_best": 20382,
		"path": "res://levels/c12.hcl",
		"bgm_track": "Stygiomedusa Gigantea",
		"bg_palette": 3,
		"bg_mountains": 1
	},
	"c_end": {
		"path": "res://levels/c_end.hcl",
		"bgm_track": "Wake Up",
		"bg_palette": 3,
		"bg_mountains": 1
	}
}
