{
	"a": {
		"title": "An Advent-ure!",
		"subtitle": "Or: The Tribulations of Travelling with Talking Turtles.",
		"levels": ["a1", "a2", "a3", "a4", "a5", "a6", "a7", "a8", "a9", "a10", "a11", "a12"],
		"epilogue": "a_end"
	},
	"b": {
		"title": "B-Sides",
		"subtitle": "Or: The Perils Persuant to Purveying Precise Platforming Problems.",
		"levels": ["b8", "b4", "b3", "b7", "c7", "b6", "b10", "c1", "b12", "b9", "c8", "c12"],
		"epilogue": "b_end"
	}
}
