[gd_scene load_steps=3 format=2]

[ext_resource path="res://objects/level_editor/object_markers/HammerMarker.gd" type="Script" id=1]
[ext_resource path="res://sprites/hammer.png" type="Texture" id=2]

[node name="HammerMarker" type="Sprite" groups=[
"object_marker",
]]
texture = ExtResource( 2 )
offset = Vector2( 8, -16 )
script = ExtResource( 1 )
